%YAML 1.1
%TAG !u! tag:unity3d.com,2011:
--- !u!221 &22100000
AnimatorOverrideController:
  m_ObjectHideFlags: 0
  m_CorrespondingSourceObject: {fileID: 0}
  m_PrefabInstance: {fileID: 0}
  m_PrefabAsset: {fileID: 0}
  m_Name: Pet17Animator
  m_Controller: {fileID: 9100000, guid: fbfe033dcfc138943bfb1dfb71b4be1c, type: 2}
  m_Clips:
  - m_OriginalClip: {fileID: 7400000, guid: df5b3e2b871b7d84bba5bd5e010d3d04, type: 2}
    m_OverrideClip: {fileID: 7400000, guid: 4ffcf3e97d80bdb43bbb5045ab65a06c, type: 2}
  - m_OriginalClip: {fileID: 7400000, guid: 49c4ff5f55832534eb6fe5e7df6fcd8f, type: 2}
    m_OverrideClip: {fileID: 7400000, guid: e1dd19d25b11e304eb8dfc7d7c80235a, type: 2}
  - m_OriginalClip: {fileID: 7400000, guid: f2a8d93ced0f0884e848ff9a342622fa, type: 2}
    m_OverrideClip: {fileID: 7400000, guid: f90c8b666f8320744a4f1981f3d705a8, type: 2}
