%YAML 1.1
%TAG !u! tag:unity3d.com,2011:
--- !u!221 &22100000
AnimatorOverrideController:
  m_ObjectHideFlags: 0
  m_CorrespondingSourceObject: {fileID: 0}
  m_PrefabInstance: {fileID: 0}
  m_PrefabAsset: {fileID: 0}
  m_Name: Pet12Animator
  m_Controller: {fileID: 9100000, guid: fbfe033dcfc138943bfb1dfb71b4be1c, type: 2}
  m_Clips:
  - m_OriginalClip: {fileID: 7400000, guid: df5b3e2b871b7d84bba5bd5e010d3d04, type: 2}
    m_OverrideClip: {fileID: 7400000, guid: 3e9fb47d2c0c1304aa56b276052d6011, type: 2}
  - m_OriginalClip: {fileID: 7400000, guid: 49c4ff5f55832534eb6fe5e7df6fcd8f, type: 2}
    m_OverrideClip: {fileID: 7400000, guid: 81b70b593841d5e44a4310906426dab8, type: 2}
  - m_OriginalClip: {fileID: 7400000, guid: f2a8d93ced0f0884e848ff9a342622fa, type: 2}
    m_OverrideClip: {fileID: 7400000, guid: d6eb2dd91298e914b861cd8ad373e158, type: 2}
  - m_OriginalClip: {fileID: 7400000, guid: 5c2cd6382cfbd854bac2479712afd9a8, type: 2}
    m_OverrideClip: {fileID: 7400000, guid: 58a317a227400ce4b8dbdf2a89e0fd87, type: 2}
