{
	"landExpand": [
		0, 0, 0, 10000, 30000, 70000, 150000, 320000, 700000, 1500000, 4000000, 10000000  
	],
	"level": {
		"exp": [
			0, 2000, 6000, 18000, 60000, 130000, 250000, 450000, 670000, 990000
		]
	},
	"fenceList": [
		{
			"_comment": "Desert",
			"type": 4
		},
		{
			"_comment": "Beach",
			"type": 5
		},
		{
			"_comment": "Waterfall",
			"type": 6
		},
		{
			"_comment": "Forest",
			"type": 7
		}
	],
	"itemList": [
		{
			"_comment": "Milk",
			"type": "Item1",
			"price": 10
		},
		{
			"_comment": "Jelly",
			"type": "Item2",
			"price": 15
		},
		{
			"_comment": "Grass",
			"type": "Item3",
			"price": 20
		},
		{
			"_comment": "Strawberry",
			"type": "Item4",
			"price": 25
		},
		{
			"_comment": "Carrot",
			"type": "Item5",
			"price": 30
		},
		{
			"_comment": "Coke",
			"type": "Item6",
			"price": 40
		},
		{
			"_comment": "Fruit",
			"type": "Item7",
			"price": 50
		},
		{
			"_comment": "Pizza",
			"type": "Item8",
			"price": 70
		},
		{
			"_comment": "Cookie",
			"type": "Item9",
			"price": 100
		},
		{
			"_comment": "Meat",
			"type": "Item10",
			"price": 150
		}
	],
	"petList": [
		{
			"_comment": "Pet1",
			"type": "Pet1",
			"name": "Slime",
			"fences": [
				5, 7
			],
			"exp": 1200,
			"reward": 800,
			"level": 1,
			"chain": "petfarm"
		},
		{
			"_comment": "Pet2",
			"type": "Pet2",
			"name": "Jaglime",
			"fences": [
				4, 6
			],
			"exp": 1200,
			"reward": 800,
			"level": 2,
			"chain": "petfarm"
		},
		{
			"_comment": "Pet9",
			"type": "Pet9",
			"name": "Gouse",
			"fences": [
				6, 7
			],
			"exp": 3000,
			"reward": 2000,
			"level": 3,
			"chain": "petfarm"
		},
		{
			"_comment": "Pet10",
			"type": "Pet10",
			"name": "Nouse",
			"fences": [
				4, 7
			],
			"exp": 3000,
			"reward": 2000,
			"level": 4,
			"chain": "petfarm"
		},
		{
			"_comment": "Pet11",
			"type": "Pet11",
			"name": "Rabitan",
			"fences": [
				6, 5
			],
			"exp": 3600,
			"reward": 2400,
			"level": 5,
			"chain": "petfarm"
		},
		{
			"_comment": "Pet12",
			"type": "Pet12",
			"name": "Pabitan",
			"fences": [
				7, 5
			],
			"exp": 3600,
			"reward": 2400,
			"level": 6,
			"chain": "petfarm"
		},
		{
			"_comment": "Pet13",
			"type": "Pet13",
			"name": "Devlic",
			"fences": [
				4, 5
			],
			"exp": 3600,
			"reward": 2400,
			"level": 7,
			"chain": "petfarm"
		},
		{
			"_comment": "Pet20",
			"type": "Pet20",
			"name": "Snupack",
			"fences": [
				5, 7
			],
			"exp": 4050,
			"reward": 2700,
			"level": 8,
			"chain": "petfarm"
		},
		{
			"_comment": "Pet18",
			"type": "Pet18",
			"name": "Squirim",
			"fences": [
				7, 5
			],
			"exp": 5250,
			"reward": 3500,
			"level": 9,
			"chain": "petfarm"
		},
		{
			"_comment": "Pet19",
			"type": "Pet19",
			"name": "Sleequir",
			"fences": [
				7, 6
			],
			"exp": 5250,
			"reward": 3500,
			"level": 10,
			"chain": "petfarm"
		},
		{
			"_comment": "Pet3",
			"type": "Pet3",
			"name": "Skygon",
			"fences": [
				5, 6
			],
			"exp": 1800,
			"reward": 1200,
			"level": 2,
			"chain": "dungeonrun"
		},
		{
			"_comment": "Pet4",
			"type": "Pet4",
			"name": "Firegon",
			"fences": [
				4, 7
			],
			"exp": 1800,
			"reward": 1200,
			"level": 2,
			"chain": "dungeonrun"
		},
		{
			"_comment": "Pet6",
			"type": "Pet6",
			"name": "Cablin",
			"fences": [
				4, 7
			],
			"exp": 1800,
			"reward": 1200,
			"level": 3,
			"chain": "dungeonrun"
		},
		{
			"_comment": "Pet7",
			"type": "Pet7",
			"name": "Pablin",
			"fences": [
				5, 6
			],
			"exp": 2700,
			"reward": 1800,
			"level": 3,
			"chain": "dungeonrun"
		},
		{
			"_comment": "Pet5",
			"type": "Pet5",
			"name": "Loopa",
			"fences": [
				4, 5
			],
			"exp": 2700,
			"reward": 1800,
			"level": 4,
			"chain": "dungeonrun"
		},
		{
			"_comment": "Pet8",
			"type": "Pet8",
			"name": "Filout",
			"fences": [
				4, 7
			],
			"exp": 3000,
			"reward": 2000,
			"level": 4,
			"chain": "dungeonrun"
		},
		{
			"_comment": "Pet14",
			"type": "Pet14",
			"name": "Sprouce",
			"fences": [
				7, 5
			],
			"exp": 4050,
			"reward": 2700,
			"level": 8,
			"chain": "dungeonrun"
		},
		{
			"_comment": "Pet15",
			"type": "Pet15",
			"name": "Prouce",
			"fences": [
				7, 4
			],
			"exp": 4500,
			"reward": 3000,
			"level": 8,
			"chain": "dungeonrun"
		},
		{
			"_comment": "Pet16",
			"type": "Pet16",
			"name": "Ploon",
			"fences": [
				4, 7
			],
			"exp": 4500,
			"reward": 3000,
			"level": 9,
			"chain": "dungeonrun"
		},
		{
			"_comment": "Pet17",
			"type": "Pet17",
			"name": "Ploony",
			"fences": [
				4, 7
			],
			"exp": 4500,
			"reward": 3000,
			"level": 9,
			"chain": "dungeonrun"
		}
	]
}