%YAML 1.1
%TAG !u! tag:unity3d.com,2011:
--- !u!687078895 &4343727234628468602
SpriteAtlas:
  m_ObjectHideFlags: 0
  m_CorrespondingSourceObject: {fileID: 0}
  m_PrefabInstance: {fileID: 0}
  m_PrefabAsset: {fileID: 0}
  m_Name: story0
  m_EditorData:
    serializedVersion: 2
    textureSettings:
      serializedVersion: 2
      anisoLevel: 1
      compressionQuality: 50
      maxTextureSize: 2048
      textureCompression: 0
      filterMode: 1
      generateMipMaps: 0
      readable: 0
      crunchedCompression: 0
      sRGB: 1
    platformSettings: []
    packingSettings:
      serializedVersion: 2
      padding: 4
      blockOffset: 1
      allowAlphaSplitting: 0
      enableRotation: 1
      enableTightPacking: 1
    variantMultiplier: 1
    packables:
    - {fileID: 102900000, guid: 94ed545905914b041888f7ab6a0fcad7, type: 3}
    totalSpriteSurfaceArea: 37748736
    bindAsDefault: 1
  m_MasterAtlas: {fileID: 0}
  m_PackedSprites:
  - {fileID: 21300000, guid: 5b5945406c635fa448fd7853911dbfb6, type: 3}
  - {fileID: 21300000, guid: 30a2c28017ca3bd48bcfdeaec4ef23c1, type: 3}
  - {fileID: 21300000, guid: 1b04bc9086a0b20439fbad82df860b12, type: 3}
  - {fileID: 21300000, guid: 050e2ec3e95db1046a0fd54b635c4f22, type: 3}
  - {fileID: 21300000, guid: 60a3c0a6cb94a5c44aaf5f637ec5126e, type: 3}
  - {fileID: 21300000, guid: b0f01d58af6a5e642a587cce841a7557, type: 3}
  - {fileID: 21300000, guid: dc97c5f91387c334288be711e961b20d, type: 3}
  - {fileID: 21300000, guid: 3fce14fbe41d89f46a30f49c03281252, type: 3}
  - {fileID: 21300000, guid: d8d3fc9d2a822674a9cb439623ccd79d, type: 3}
  m_PackedSpriteNamesToIndex:
  - 5
  - 6
  - 7
  - 4
  - 1
  - 8
  - 0
  - 2
  - 3
  m_Tag: story0
  m_IsVariant: 0
